{"nombreImagenes":["IMG_AYUDA_001.JPG","IMG_AYUDA_002.JPG","IMG_AYUDA_003.JPG","IMG_AYUDA_004.JPG",
"IMG_AYUDA_005.JPG","IMG_AYUDA_006.JPG","IMG_AYUDA_007.JPG","IMG_AYUDA_008.JPG","IMG_AYUDA_009.JPG","IMG_AYUDA_010.JPG",
"IMG_AYUDA_011.JPG","IMG_AYUDA_012.JPG","IMG_AYUDA_013.JPG","IMG_AYUDA_014.JPG","IMG_AYUDA_015.JPG","IMG_AYUDA_016.JPG",
"IMG_AYUDA_017.JPG","IMG_AYUDA_018.JPG","IMG_AYUDA_019.JPG","IMG_AYUDA_020.JPG","IMG_AYUDA_021.JPG","IMG_AYUDA_022.JPG",
"IMG_AYUDA_023.JPG","IMG_AYUDA_024.JPG","IMG_AYUDA_025.JPG","IMG_AYUDA_026.JPG","IMG_AYUDA_027.JPG","IMG_AYUDA_028.JPG",
"IMG_AYUDA_029.JPG","IMG_AYUDA_030.JPG","IMG_AYUDA_031.JPG","IMG_AYUDA_032.JPG","IMG_AYUDA_033.JPG","IMG_AYUDA_034.JPG"]}

